Ethan Marburger Homework 4
…
Rows: 214 Columns: 11
── Column specification ────────────────────────────────────────────────────────
Delimiter: ","
dbl (11): Id, RI, Na, Mg, Al, Si, K, Ca, Ba, Fe, Glass_type

ℹ Use `spec()` to retrieve the full column specification for this data.
ℹ Specify the column types or set `show_col_types = FALSE` to quiet this message.

print(glass_data)

# A tibble: 214 × 11
      Id    RI    Na    Mg    Al    Si     K    Ca    Ba    Fe Glass_type
   <dbl> <dbl> <dbl> <dbl> <dbl> <dbl> <dbl> <dbl> <dbl> <dbl>      <dbl>
 1     1  1.52  13.6  4.49  1.1   71.8  0.06  8.75     0  0             1
 2     2  1.52  13.9  3.6   1.36  72.7  0.48  7.83     0  0             1
 3     3  1.52  13.5  3.55  1.54  73.0  0.39  7.78     0  0             1
 4     4  1.52  13.2  3.69  1.29  72.6  0.57  8.22     0  0             1
 5     5  1.52  13.3  3.62  1.24  73.1  0.55  8.07     0  0             1
 6     6  1.52  12.8  3.61  1.62  73.0  0.64  8.07     0  0.26          1
 7     7  1.52  13.3  3.6   1.14  73.1  0.58  8.17     0  0             1
 8     8  1.52  13.2  3.61  1.05  73.2  0.57  8.24     0  0             1
 9     9  1.52  14.0  3.58  1.37  72.1  0.56  8.3      0  0             1
10    10  1.52  13    3.6   1.36  73.0  0.57  8.4      0  0.11          1
# ℹ 204 more rows

Start a chain that would overwrite the Type_of_glass variable using mutate(). Create an appropriately named character string version instead.

library(dplyr)
glass_data |>
  mutate(Glass_type = recode(Glass_type,
                             "1" = "building_windows_float_processed",
                             "2" = "building_windows_non_float_processed",
                             "3" = "Vehilce_windows_float_processed",
                             "4" = "Vehilce_windows_non_float_processed",
                             "5" = "containers",
                             "6" = "tableware",
                             "7" = "headlamps"))

# A tibble: 214 × 11
      Id    RI    Na    Mg    Al    Si     K    Ca    Ba    Fe Glass_type       
   <dbl> <dbl> <dbl> <dbl> <dbl> <dbl> <dbl> <dbl> <dbl> <dbl> <chr>            
 1     1  1.52  13.6  4.49  1.1   71.8  0.06  8.75     0  0    building_windows…
 2     2  1.52  13.9  3.6   1.36  72.7  0.48  7.83     0  0    building_windows…
 3     3  1.52  13.5  3.55  1.54  73.0  0.39  7.78     0  0    building_windows…
 4     4  1.52  13.2  3.69  1.29  72.6  0.57  8.22     0  0    building_windows…
 5     5  1.52  13.3  3.62  1.24  73.1  0.55  8.07     0  0    building_windows…
 6     6  1.52  12.8  3.61  1.62  73.0  0.64  8.07     0  0.26 building_windows…
 7     7  1.52  13.3  3.6   1.14  73.1  0.58  8.17     0  0    building_windows…
 8     8  1.52  13.2  3.61  1.05  73.2  0.57  8.24     0  0    building_windows…
 9     9  1.52  14.0  3.58  1.37  72.1  0.56  8.3      0  0    building_windows…
10    10  1.52  13    3.6   1.36  73.0  0.57  8.4      0  0.11 building_windows…
# ℹ 204 more rows

glass_data

# A tibble: 214 × 11
      Id    RI    Na    Mg    Al    Si     K    Ca    Ba    Fe Glass_type
   <dbl> <dbl> <dbl> <dbl> <dbl> <dbl> <dbl> <dbl> <dbl> <dbl>      <dbl>
 1     1  1.52  13.6  4.49  1.1   71.8  0.06  8.75     0  0             1
 2     2  1.52  13.9  3.6   1.36  72.7  0.48  7.83     0  0             1
 3     3  1.52  13.5  3.55  1.54  73.0  0.39  7.78     0  0             1
 4     4  1.52  13.2  3.69  1.29  72.6  0.57  8.22     0  0             1
 5     5  1.52  13.3  3.62  1.24  73.1  0.55  8.07     0  0             1
 6     6  1.52  12.8  3.61  1.62  73.0  0.64  8.07     0  0.26          1
 7     7  1.52  13.3  3.6   1.14  73.1  0.58  8.17     0  0             1
 8     8  1.52  13.2  3.61  1.05  73.2  0.57  8.24     0  0             1
 9     9  1.52  14.0  3.58  1.37  72.1  0.56  8.3      0  0             1
10    10  1.52  13    3.6   1.36  73.0  0.57  8.4      0  0.11          1
# ℹ 204 more rows

Continue your chain and keep only observations where the Fe variable is less than 0.2 and the Type of Glass is either “tableware” or “headlamp”.

glass_data |>
  mutate(Glass_type = recode(Glass_type,
                             "1" = "building_windows_float_processed",
                             "2" = "building_windows_non_float_processed",
                             "3" = "Vehilce_windows_float_processed",
                             "4" = "Vehilce_windows_non_float_processed",
                             "5" = "containers",
                             "6" = "tableware",
                             "7" = "headlamps")) |>
  filter(Fe < 0.2, Glass_type %in% c("tableware", "headlamps"))

# A tibble: 38 × 11
      Id    RI    Na    Mg    Al    Si     K    Ca    Ba    Fe Glass_type
   <dbl> <dbl> <dbl> <dbl> <dbl> <dbl> <dbl> <dbl> <dbl> <dbl> <chr>     
 1   177  1.52  14    2.39  1.56  72.4  0     9.57  0        0 tableware 
 2   178  1.52  13.8  2.41  1.19  72.8  0     9.77  0        0 tableware 
 3   179  1.52  14.5  2.24  1.62  72.4  0     9.26  0        0 tableware 
 4   180  1.52  14.1  2.19  1.66  72.7  0     9.32  0        0 tableware 
 5   181  1.51  14.4  1.74  1.54  74.6  0     7.59  0        0 tableware 
 6   182  1.52  15.0  0.78  1.74  72.5  0     9.95  0        0 tableware 
 7   183  1.52  14.2  0     2.09  72.7  0    10.9   0        0 tableware 
 8   184  1.52  14.6  0     0.56  73.5  0    11.2   0        0 tableware 
 9   185  1.51  17.4  0     0.34  75.4  0     6.65  0        0 tableware 
10   186  1.51  13.7  3.2   1.81  72.8  1.76  5.43  1.19     0 headlamps 
# ℹ 28 more rows
…
Rows: 1484 Columns: 10
── Column specification ────────────────────────────────────────────────────────

chr (3): seq_name, mit, erl
dbl (7): mcg, gvh, alm, pox, vac, nuc, class

ℹ Use `spec()` to retrieve the full column specification for this data.
ℹ Specify the column types or set `show_col_types = FALSE` to quiet this message.

yeast_data

# A tibble: 1,484 × 10
   seq_name     mcg   gvh   alm mit   erl     pox   vac   nuc class
   <chr>      <dbl> <dbl> <dbl> <chr> <chr> <dbl> <dbl> <dbl> <dbl>
 1 ADT1_YEAST  0.58  0.61   0.4 7  0. 13  0   0.5   0    0.48   0.2
 2 ADT2_YEAST  0.43  0.67   0.4 8  0. 27  0   0.5   0    0.53   0.2
 3 ADT3_YEAST  0.64  0.62   0.4 9  0. 15  0   0.5   0    0.53   0.2
 4 AAR2_YEAST  0.58  0.44   0.5 7  0. 13  0   0.5   0    0.54   0.2
 5 AATM_YEAST  0.42  0.44   0.4 8  0. 54  0   0.5   0    0.48   0.2
 6 AATC_YEAST  0.51  0.4    0.5 6  0. 17  0   0.5   0.5  0.49   0.2
 7 ABC1_YEAST  0.5   0.54   0.4 8  0. 65  0   0.5   0    0.53   0.2
 8 BAF1_YEAST  0.48  0.45   0.5 9  0. 20  0   0.5   0    0.58   0.3
 9 ABF2_YEAST  0.55  0.5    0.6 6  0. 36  0   0.5   0    0.49   0.2
10 ABP1_YEAST  0.4   0.39   0.6 0  0. 15  0   0.5   0    0.58   0.3
# ℹ 1,474 more rows

Start a chain that removes the seq_name and nuc columns.

yeast_data |>
  select(-seq_name, -nuc)

# A tibble: 1,484 × 8
     mcg   gvh   alm mit   erl     pox   vac class
   <dbl> <dbl> <dbl> <chr> <chr> <dbl> <dbl> <dbl>
 1  0.58  0.61   0.4 7  0. 13  0   0.5   0     0.2
 2  0.43  0.67   0.4 8  0. 27  0   0.5   0     0.2
 3  0.64  0.62   0.4 9  0. 15  0   0.5   0     0.2
 4  0.58  0.44   0.5 7  0. 13  0   0.5   0     0.2
 5  0.42  0.44   0.4 8  0. 54  0   0.5   0     0.2
 6  0.51  0.4    0.5 6  0. 17  0   0.5   0.5   0.2
 7  0.5   0.54   0.4 8  0. 65  0   0.5   0     0.2
 8  0.48  0.45   0.5 9  0. 20  0   0.5   0     0.3
 9  0.55  0.5    0.6 6  0. 36  0   0.5   0     0.2
10  0.4   0.39   0.6 0  0. 15  0   0.5   0     0.3
# ℹ 1,474 more rows

Continue your chain to add columns corresponding to the mean and median of each numeric variable(mcg, gvh, alm, mit, erl, pox, and vac) at each class grouping

#Continuing chain
yeast_data <- yeast_data |>
  select(-seq_name, -nuc) |>
  mutate(across(where(is.numeric), list(mean = mean, median = median), .names = "{.col}_{.fn}"))
yeast_data

# A tibble: 1,484 × 20
     mcg   gvh   alm mit   erl     pox   vac class mcg_mean mcg_median gvh_mean
   <dbl> <dbl> <dbl> <chr> <chr> <dbl> <dbl> <dbl>    <dbl>      <dbl>    <dbl>
 1  0.58  0.61   0.4 7  0. 13  0   0.5   0     0.2    0.500       0.49    0.500
 2  0.43  0.67   0.4 8  0. 27  0   0.5   0     0.2    0.500       0.49    0.500
 3  0.64  0.62   0.4 9  0. 15  0   0.5   0     0.2    0.500       0.49    0.500
 4  0.58  0.44   0.5 7  0. 13  0   0.5   0     0.2    0.500       0.49    0.500
 5  0.42  0.44   0.4 8  0. 54  0   0.5   0     0.2    0.500       0.49    0.500
 6  0.51  0.4    0.5 6  0. 17  0   0.5   0.5   0.2    0.500       0.49    0.500
 7  0.5   0.54   0.4 8  0. 65  0   0.5   0     0.2    0.500       0.49    0.500
 8  0.48  0.45   0.5 9  0. 20  0   0.5   0     0.3    0.500       0.49    0.500
 9  0.55  0.5    0.6 6  0. 36  0   0.5   0     0.2    0.500       0.49    0.500
10  0.4   0.39   0.6 0  0. 15  0   0.5   0     0.3    0.500       0.49    0.500
# ℹ 1,474 more rows
# ℹ 9 more variables: gvh_median <dbl>, alm_mean <dbl>, alm_median <dbl>,
#   pox_mean <dbl>, pox_median <dbl>, vac_mean <dbl>, vac_median <dbl>,
#   class_mean <dbl>, class_median <dbl>

Task 2: Combining Excel and Delimited Data

Importing white wine data set and printing out tibble

library(readxl)

Warning: package 'readxl' was built under R version 4.3.3

white_wine <- read_excel("white-wine.xlsx",
                         sheet = excel_sheets("white-wine.xlsx")[1],
                         col_names = TRUE)
white_wine

# A tibble: 4,898 × 12
   `fixed acidity` `volatile acidity` `citric acid` `residual sugar` chlorides
             <dbl>              <dbl>         <dbl>            <dbl>     <dbl>
 1               7               0.27          0.36             20.7     0.045
 2              63               0.3           0.34              1.6     0.049
 3              81               0.28          0.4               6.9     0.05 
 4              72               0.23          0.32              8.5     0.058
 5              72               0.23          0.32              8.5     0.058
 6              81               0.28          0.4               6.9     0.05 
 7              62               0.32          0.16              7       0.045
 8               7               0.27          0.36             20.7     0.045
 9              63               0.3           0.34              1.6     0.049
10              81               0.22          0.43              1.5     0.044
# ℹ 4,888 more rows
# ℹ 7 more variables: `free sulfur dioxide` <dbl>,
#   `total sulfur dioxide` <dbl>, density <dbl>, pH <dbl>, sulphates <dbl>,
#   alcohol <dbl>, quality <dbl>

Rename white_wine variables using variables from the second sheet of our white-wine.xlsx file

#Reading in the second data sheet
white_wine_variables <- read_excel("white-wine.xlsx",
                         sheet = excel_sheets("white-wine.xlsx")[2],
                         col_names = TRUE)
# renaming the columns of white_wine with variables found in white_wine_variables
new_col_names <- white_wine_variables |> pull(1)
white_wine <- white_wine |>
  setNames(new_col_names)
print(white_wine)

# A tibble: 4,898 × 12
   fixed_acidity volatile_acidity citric_acid residual_sugar chlorides
           <dbl>            <dbl>       <dbl>          <dbl>     <dbl>
 1             7             0.27        0.36           20.7     0.045
 2            63             0.3         0.34            1.6     0.049
 3            81             0.28        0.4             6.9     0.05 
 4            72             0.23        0.32            8.5     0.058
 5            72             0.23        0.32            8.5     0.058
 6            81             0.28        0.4             6.9     0.05 
 7            62             0.32        0.16            7       0.045
 8             7             0.27        0.36           20.7     0.045
 9            63             0.3         0.34            1.6     0.049
10            81             0.22        0.43            1.5     0.044
# ℹ 4,888 more rows
# ℹ 7 more variables: free_sulfur_dioxide <dbl>, total_sulfur_dioxide <dbl>,
#   density <dbl>, pH <dbl>, sulphates <dbl>, alcohol <dbl>, quality <dbl>

Add a column to this data set to indicate the wines are white.

white_wine <- white_wine |>
  mutate(type = "white")
print(white_wine)

# A tibble: 4,898 × 13
   fixed_acidity volatile_acidity citric_acid residual_sugar chlorides
           <dbl>            <dbl>       <dbl>          <dbl>     <dbl>
 1             7             0.27        0.36           20.7     0.045
 2            63             0.3         0.34            1.6     0.049
 3            81             0.28        0.4             6.9     0.05 
 4            72             0.23        0.32            8.5     0.058
 5            72             0.23        0.32            8.5     0.058
 6            81             0.28        0.4             6.9     0.05 
 7            62             0.32        0.16            7       0.045
 8             7             0.27        0.36           20.7     0.045
 9            63             0.3         0.34            1.6     0.049
10            81             0.22        0.43            1.5     0.044
# ℹ 4,888 more rows
# ℹ 8 more variables: free_sulfur_dioxide <dbl>, total_sulfur_dioxide <dbl>,
#   density <dbl>, pH <dbl>, sulphates <dbl>, alcohol <dbl>, quality <dbl>,
#   type <chr>
…
  fixed_acidity volatile_acidity citric_acid residual_sugar chlorides
1           7.4              0.7           0            1.9     0.076
  free_sulfur_dioxide total_sulfur_dioxide density   pH sulphates alcohol
1                  11                   34  0.9978 3.51      0.56     9.4
  quality type
1       5  red

Combine the two data sets into one

wine_data <- dplyr::bind_rows(white_wine, red_wine)
print(wine_data)

# A tibble: 6,497 × 13
   fixed_acidity volatile_acidity citric_acid residual_sugar chlorides
           <dbl>            <dbl>       <dbl>          <dbl>     <dbl>
 1             7             0.27        0.36           20.7     0.045
 2            63             0.3         0.34            1.6     0.049
 3            81             0.28        0.4             6.9     0.05 
 4            72             0.23        0.32            8.5     0.058
 5            72             0.23        0.32            8.5     0.058
 6            81             0.28        0.4             6.9     0.05 
 7            62             0.32        0.16            7       0.045
 8             7             0.27        0.36           20.7     0.045
 9            63             0.3         0.34            1.6     0.049
10            81             0.22        0.43            1.5     0.044
# ℹ 6,487 more rows
# ℹ 8 more variables: free_sulfur_dioxide <dbl>, total_sulfur_dioxide <dbl>,
#   density <dbl>, pH <dbl>, sulphates <dbl>, alcohol <dbl>, quality <dbl>,
#   type <chr>

Start a chain on your new combined data object to filter the data to only look at high-quality wines (quality > 6.5) and wines that have a reasonable alcohol value (alcohol < 132)

#Starting a chain
wine_data |>
  filter(quality > 6.5, alcohol < 132)

# A tibble: 1,206 × 13
   fixed_acidity volatile_acidity citric_acid residual_sugar chlorides
           <dbl>            <dbl>       <dbl>          <dbl>     <dbl>
 1            66             0.16        0.4             1.5     0.044
 2            66             0.17        0.38            1.5     0.032
 3            62             0.66        0.48            1.2     0.029
 4            62             0.66        0.48            1.2     0.029
 5            64             0.31        0.38            2.9     0.038
 6            68             0.26        0.42            1.7     0.049
 7            72             0.32        0.36            2       0.033
 8            74             0.18        0.31            1.4     0.058
 9            66             0.25        0.29            1.1     0.068
10            62             0.16        0.33            1.1     0.057
# ℹ 1,196 more rows
# ℹ 8 more variables: free_sulfur_dioxide <dbl>, total_sulfur_dioxide <dbl>,
#   density <dbl>, pH <dbl>, sulphates <dbl>, alcohol <dbl>, quality <dbl>,
#   type <chr>

Continue your chain to now sort the data from highest quality to lowest.

#Continuing chain
wine_data |>
  filter(quality > 6.5, alcohol < 132) |>
  arrange(quality)

# A tibble: 1,206 × 13
   fixed_acidity volatile_acidity citric_acid residual_sugar chlorides
           <dbl>            <dbl>       <dbl>          <dbl>     <dbl>
 1            66             0.16        0.4             1.5     0.044
 2            66             0.17        0.38            1.5     0.032
 3            64             0.31        0.38            2.9     0.038
 4            72             0.32        0.36            2       0.033
 5            74             0.18        0.31            1.4     0.058
 6            66             0.25        0.29            1.1     0.068
 7            62             0.16        0.33            1.1     0.057
 8            64             0.26        0.24            6.4     0.04 
 9            71             0.18        0.36            1.4     0.043
10             7             0.32        0.34            1.3     0.042
# ℹ 1,196 more rows
# ℹ 8 more variables: free_sulfur_dioxide <dbl>, total_sulfur_dioxide <dbl>,
#   density <dbl>, pH <dbl>, sulphates <dbl>, alcohol <dbl>, quality <dbl>,
#   type <chr>

Continue your chain to select only the variables that contain acid, the alcohol variable, the type variable, and the quality variable.

#Continuing chain
wine_data |>
  filter(quality > 6.5, alcohol < 132) |>
  arrange(quality) |>
  select(contains("acid"), alcohol, type)

# A tibble: 1,206 × 5
   fixed_acidity volatile_acidity citric_acid alcohol type 
           <dbl>            <dbl>       <dbl>   <dbl> <chr>
 1            66             0.16        0.4      124 white
 2            66             0.17        0.38     114 white
 3            64             0.31        0.38      11 white
 4            72             0.32        0.36     123 white
 5            74             0.18        0.31      10 white
 6            66             0.25        0.29      11 white
 7            62             0.16        0.33     109 white
 8            64             0.26        0.24     126 white
 9            71             0.18        0.36     127 white
10             7             0.32        0.34      12 white
# ℹ 1,196 more rows

9.Continue your chain to add the mean and standard deviation of the alcohol variable to the data set for each setting of the quality variable.

#Continuing chain
final_wine_data <- wine_data |>
  filter(quality > 6.5, alcohol < 132) |>
  arrange(quality) |>
  select(contains("acid"), alcohol, quality, type) |>
  mutate(
    quality_mean = mean(quality, na.rm = TRUE),
    quality_sd = sd(quality, na.rm = TRUE))
#Final product of chain
print(final_wine_data)

# A tibble: 1,206 × 8
   fixed_acidity volatile_acidity citric_acid alcohol quality type  quality_mean
           <dbl>            <dbl>       <dbl>   <dbl>   <dbl> <chr>        <dbl>
 1            66             0.16        0.4      124       7 white         7.16
 2            66             0.17        0.38     114       7 white         7.16
 3            64             0.31        0.38      11       7 white         7.16
 4            72             0.32        0.36     123       7 white         7.16
 5            74             0.18        0.31      10       7 white         7.16
 6            66             0.25        0.29      11       7 white         7.16
 7            62             0.16        0.33     109       7 white         7.16
 8            64             0.26        0.24     126       7 white         7.16
 9            71             0.18        0.36     127       7 white         7.16
10             7             0.32        0.34      12       7 white         7.16
# ℹ 1,196 more rows
# ℹ 1 more variable: quality_sd <dbl>
